[gd_scene load_steps=2 format=3 uid="uid://diyw2u7kln84w"]

[ext_resource type="AudioStream" uid="uid://bjndnnbjcvcau" path="res://assets/music/time_for_adventure.mp3" id="1_mcjkr"]

[node name="Music" type="AudioStreamPlayer2D"]
stream = ExtResource("1_mcjkr")
autoplay = true
bus = &"Music"
